{
  "id": "token-action-hud-dcc",
  "title": "Token Action HUD Dungeon Crawl Classics",
  "description": "Token Action HUD is a repositionable HUD of actions for a selected token",
  "authors": [
    {
      "name": "seumas"
    }
  ],
  "url": "https://gitlab.com/vtt2/token-action-hud-dcc",
  "flags": {},
  "version": "1.1.5",
  "compatibility": {
    "minimum": "10",
    "verified": "12.330"
  },
  "esmodules": [
    "./scripts/init.js"
  ],
  "scripts": [
  ],
  "styles": [
  ],
  "languages": [
    {
      "lang": "en",
      "name": "English",
      "path": "languages/en.json"
    }
  ],
  "packs": [],
  "relationships": {
    "systems": [
      {
        "id": "dcc",
        "type": "system",
        "compatibility": [
          {
            "minimum": "0.36.0",
            "verified": "0.36.0"
          }
        ]
      }
    ],
    "requires": [
      {
        "id": "token-action-hud-core",
        "type": "module",
        "compatibility": [
          {
            "minimum": "2.0",
            "maximum": "2.0",
            "verified": "2.0.10"
          }
        ]
      }
    ],
    "optional": [],
    "flags": {
      "optional": []
    }
  },
  "socket": false,
  "manifest": "https://gitlab.com/api/v4/projects/50667625/packages/generic/token-action-hud-dcc/0.0.0/module.json",
  "download": "https://gitlab.com/api/v4/projects/50667625/packages/generic/token-action-hud-dcc/0.0.0/token-action-hud-dcc.zip",
  "readme": "https://gitlab.com/vtt2/token-action-hud-dcc",
  "protected": false,
  "coreTranslation": false,
  "library": false
}
